PWD /home/jhony75/Documents/Complexos/Export
INPUT /usr/share/texmf-dist/web2c/texmf.cnf
INPUT /var/lib/texmf/web2c/pdftex/pdflatex.fmt
INPUT /home/jhony75/Documents/Complexos/Export/Trabalho.tex
OUTPUT /home/jhony75/Documents/Complexos/Export/Trabalho.log
INPUT /usr/share/texmf-dist/tex/latex/base/report.cls
INPUT /usr/share/texmf-dist/tex/latex/base/report.cls
INPUT /usr/share/texmf-dist/tex/latex/base/size10.clo
INPUT /usr/share/texmf-dist/tex/latex/base/size10.clo
INPUT /usr/share/texmf-dist/tex/generic/babel/babel.sty
INPUT /usr/share/texmf-dist/tex/generic/babel/babel.sty
INPUT /usr/share/texmf-dist/tex/generic/babel/switch.def
INPUT /usr/share/texmf-dist/tex/generic/babel-portuges/portuges.ldf
INPUT /usr/share/texmf-dist/tex/generic/babel-portuges/portuges.ldf
INPUT /usr/share/texmf-dist/tex/generic/babel/babel.def
INPUT /usr/share/texmf-dist/tex/generic/babel/txtbabel.def
INPUT /usr/share/texmf-dist/tex/latex/base/inputenc.sty
INPUT /usr/share/texmf-dist/tex/latex/base/inputenc.sty
INPUT /usr/share/texmf-dist/tex/latex/abnt/abnt.sty
INPUT /usr/share/texmf-dist/tex/latex/abnt/abnt.sty
INPUT /usr/share/texmf-dist/tex/latex/geometry/geometry.sty
INPUT /usr/share/texmf-dist/tex/latex/geometry/geometry.sty
INPUT /usr/share/texmf-dist/tex/latex/graphics/keyval.sty
INPUT /usr/share/texmf-dist/tex/latex/graphics/keyval.sty
INPUT /usr/share/texmf-dist/tex/generic/oberdiek/ifpdf.sty
INPUT /usr/share/texmf-dist/tex/generic/oberdiek/ifpdf.sty
INPUT /usr/share/texmf-dist/tex/generic/oberdiek/ifvtex.sty
INPUT /usr/share/texmf-dist/tex/generic/oberdiek/ifvtex.sty
INPUT /usr/share/texmf-dist/tex/generic/ifxetex/ifxetex.sty
INPUT /usr/share/texmf-dist/tex/generic/ifxetex/ifxetex.sty
INPUT /usr/share/texmf-dist/tex/latex/setspace/setspace.sty
INPUT /usr/share/texmf-dist/tex/latex/setspace/setspace.sty
INPUT /usr/share/texmf-dist/tex/latex/koma-script/scrlayer-scrpage.sty
INPUT /usr/share/texmf-dist/tex/latex/koma-script/scrlayer-scrpage.sty
INPUT /usr/share/texmf-dist/tex/latex/koma-script/scrlayer.sty
INPUT /usr/share/texmf-dist/tex/latex/koma-script/scrlayer.sty
INPUT /usr/share/texmf-dist/tex/latex/koma-script/scrkbase.sty
INPUT /usr/share/texmf-dist/tex/latex/koma-script/scrkbase.sty
INPUT /usr/share/texmf-dist/tex/latex/koma-script/scrbase.sty
INPUT /usr/share/texmf-dist/tex/latex/koma-script/scrbase.sty
INPUT /usr/share/texmf-dist/tex/latex/koma-script/scrlfile.sty
INPUT /usr/share/texmf-dist/tex/latex/koma-script/scrlfile.sty
INPUT /usr/share/texmf-dist/tex/latex/emptypage/emptypage.sty
INPUT /usr/share/texmf-dist/tex/latex/emptypage/emptypage.sty
INPUT /usr/share/texmf-dist/tex/latex/etoolbox/etoolbox.sty
INPUT /usr/share/texmf-dist/tex/latex/etoolbox/etoolbox.sty
INPUT /usr/share/texmf-dist/tex/latex/caption/newfloat.sty
INPUT /usr/share/texmf-dist/tex/latex/caption/newfloat.sty
INPUT /usr/share/texmf-dist/tex/latex/caption/caption.sty
INPUT /usr/share/texmf-dist/tex/latex/caption/caption.sty
INPUT /usr/share/texmf-dist/tex/latex/caption/caption3.sty
INPUT /usr/share/texmf-dist/tex/latex/caption/caption3.sty
INPUT /usr/share/texmf-dist/tex/latex/chngcntr/chngcntr.sty
INPUT /usr/share/texmf-dist/tex/latex/chngcntr/chngcntr.sty
INPUT /usr/share/texmf-dist/tex/latex/koma-script/tocbasic.sty
INPUT /usr/share/texmf-dist/tex/latex/koma-script/tocbasic.sty
INPUT /usr/share/texmf-dist/tex/latex/tools/enumerate.sty
INPUT /usr/share/texmf-dist/tex/latex/tools/enumerate.sty
INPUT /usr/share/texmf-dist/tex/latex/base/fontenc.sty
INPUT /usr/share/texmf-dist/tex/latex/base/fontenc.sty
INPUT /usr/share/texmf-dist/tex/latex/base/t1enc.def
INPUT /usr/share/texmf-dist/tex/latex/base/t1enc.def
INPUT /usr/share/texmf-dist/fonts/map/fontname/texfonts.map
INPUT /usr/share/texmf-dist/fonts/tfm/jknappen/ec/ecrm1000.tfm
INPUT /usr/share/texmf-dist/tex/latex/sourcecodepro/sourcecodepro.sty
INPUT /usr/share/texmf-dist/tex/latex/sourcecodepro/sourcecodepro.sty
INPUT /usr/share/texmf-dist/tex/generic/oberdiek/ifluatex.sty
INPUT /usr/share/texmf-dist/tex/generic/oberdiek/ifluatex.sty
INPUT /usr/share/texmf-dist/tex/latex/xkeyval/xkeyval.sty
INPUT /usr/share/texmf-dist/tex/latex/xkeyval/xkeyval.sty
INPUT /usr/share/texmf-dist/tex/generic/xkeyval/xkeyval.tex
INPUT /usr/share/texmf-dist/tex/generic/xkeyval/xkvutils.tex
INPUT /usr/share/texmf-dist/tex/latex/base/fontenc.sty
INPUT /usr/share/texmf-dist/tex/latex/base/fontenc.sty
INPUT /usr/share/texmf-dist/tex/latex/base/ot1enc.def
INPUT /usr/share/texmf-dist/tex/latex/base/ot1enc.def
INPUT /usr/share/texmf-dist/tex/latex/ly1/ly1enc.def
INPUT /usr/share/texmf-dist/tex/latex/ly1/ly1enc.def
INPUT /usr/share/texmf-dist/tex/latex/base/ly1enc.dfu
INPUT /usr/share/texmf-dist/tex/latex/base/ly1enc.dfu
INPUT /usr/share/texmf-dist/tex/latex/base/t1enc.def
INPUT /usr/share/texmf-dist/tex/latex/base/t1enc.def
INPUT /usr/share/texmf-dist/tex/latex/psnfss/t1ptm.fd
INPUT /usr/share/texmf-dist/tex/latex/psnfss/t1ptm.fd
INPUT /usr/share/texmf-dist/fonts/tfm/adobe/times/ptmr8t.tfm
INPUT /usr/share/texmf-dist/tex/latex/mweights/mweights.sty
INPUT /usr/share/texmf-dist/tex/latex/mweights/mweights.sty
INPUT /usr/share/texmf-dist/tex/latex/tools/indentfirst.sty
INPUT /usr/share/texmf-dist/tex/latex/tools/indentfirst.sty
INPUT /home/jhony75/Documents/Complexos/Export/Trabalho.aux
INPUT /home/jhony75/Documents/Complexos/Export/Trabalho.aux
OUTPUT /home/jhony75/Documents/Complexos/Export/Trabalho.aux
INPUT /usr/share/texmf-dist/tex/latex/ly1/ly1ptm.fd
INPUT /usr/share/texmf-dist/tex/latex/ly1/ly1ptm.fd
INPUT /usr/share/texmf-dist/fonts/tfm/jknappen/ec/ecrm1728.tfm
INPUT /usr/share/texmf-dist/fonts/tfm/jknappen/ec/ecrm1200.tfm
INPUT /usr/share/texmf-dist/fonts/tfm/public/cm/cmr12.tfm
INPUT /usr/share/texmf-dist/fonts/tfm/public/cm/cmr8.tfm
INPUT /usr/share/texmf-dist/fonts/tfm/public/cm/cmr6.tfm
INPUT /usr/share/texmf-dist/fonts/tfm/public/cm/cmmi12.tfm
INPUT /usr/share/texmf-dist/fonts/tfm/public/cm/cmmi8.tfm
INPUT /usr/share/texmf-dist/fonts/tfm/public/cm/cmmi6.tfm
INPUT /usr/share/texmf-dist/fonts/tfm/public/cm/cmsy10.tfm
INPUT /usr/share/texmf-dist/fonts/tfm/public/cm/cmsy8.tfm
INPUT /usr/share/texmf-dist/fonts/tfm/public/cm/cmsy6.tfm
OUTPUT /home/jhony75/Documents/Complexos/Export/Trabalho.pdf
INPUT /var/lib/texmf/fonts/map/pdftex/updmap/pdftex.map
INPUT /usr/share/texmf-dist/fonts/tfm/jknappen/ec/ecrm2488.tfm
INPUT /usr/share/texmf-dist/fonts/tfm/jknappen/ec/ecbx2488.tfm
INPUT /home/jhony75/Documents/Complexos/Export/Trabalho.toc
INPUT /home/jhony75/Documents/Complexos/Export/Trabalho.toc
INPUT /usr/share/texmf-dist/fonts/tfm/jknappen/ec/ecbx1000.tfm
OUTPUT /home/jhony75/Documents/Complexos/Export/Trabalho.toc
INPUT /usr/share/texmf-dist/fonts/tfm/jknappen/ec/ecsl1000.tfm
INPUT /usr/share/texmf-dist/fonts/tfm/jknappen/ec/ecrm2074.tfm
INPUT /usr/share/texmf-dist/fonts/tfm/jknappen/ec/ecbx2074.tfm
INPUT /usr/share/texmf-dist/fonts/tfm/jknappen/ec/ecrm1440.tfm
INPUT /usr/share/texmf-dist/fonts/tfm/jknappen/ec/ecbx1440.tfm
INPUT /home/jhony75/Documents/Complexos/Export/Trabalho.aux
INPUT /usr/share/texmf-dist/fonts/enc/dvips/cm-super/cm-super-t1.enc
INPUT /usr/share/texmf-dist/fonts/type1/public/amsfonts/cm/cmmi10.pfb
INPUT /usr/share/texmf-dist/fonts/type1/public/amsfonts/cm/cmr10.pfb
INPUT /usr/share/texmf-dist/fonts/type1/public/amsfonts/cm/cmr7.pfb
INPUT /usr/share/texmf-dist/fonts/type1/public/amsfonts/cm/cmsy10.pfb
INPUT /usr/share/texmf-dist/fonts/type1/public/amsfonts/cm/cmsy7.pfb
INPUT /usr/share/texmf-dist/fonts/type1/public/cm-super/sfbx1000.pfb
INPUT /usr/share/texmf-dist/fonts/type1/public/cm-super/sfbx1440.pfb
INPUT /usr/share/texmf-dist/fonts/type1/public/cm-super/sfbx2074.pfb
INPUT /usr/share/texmf-dist/fonts/type1/public/cm-super/sfbx2488.pfb
INPUT /usr/share/texmf-dist/fonts/type1/public/cm-super/sfrm1000.pfb
INPUT /usr/share/texmf-dist/fonts/type1/public/cm-super/sfrm1200.pfb
INPUT /usr/share/texmf-dist/fonts/type1/public/cm-super/sfrm1728.pfb
INPUT /usr/share/texmf-dist/fonts/type1/public/cm-super/sfsl1000.pfb
