\babel@toc {brazilian}{}
\contentsline {chapter}{\numberline {1}S\IeC {\'e}rie 11}{2}% 
\contentsline {section}{\numberline {1.1}1) Efetue as opera\IeC {\c c}\IeC {\~o}es indicadads}{2}% 
\contentsline {section}{\numberline {1.2}2) Resolva em C}{3}% 
