\relax 
\catcode `"\active 
\babel@aux{brazilian}{}
\@writefile{toc}{\contentsline {chapter}{\numberline {1}S\IeC {\'e}rie 11}{2}\protected@file@percent }
\@writefile{lof}{\addvspace {10\p@ }}
\@writefile{lot}{\addvspace {10\p@ }}
\@writefile{toc}{\contentsline {section}{\numberline {1.1}1) Efetue as opera\IeC {\c c}\IeC {\~o}es indicadads}{2}\protected@file@percent }
\global\@namedef{scr@dte@chapter@lastmaxnumwidth}{10.3474pt}
